[{
  "api": "v1",
  "kind": "ConfigMap",
  "namespace": "gitlab",
  "name": "gitlab-gitlab-chart-info",
  "change": "MODIFY"
},{
  "api": "apps",
  "kind": "Deployment",
  "namespace": "gitlab",
  "name": "gitlab-sidekiq-catchall-v2",
  "change": "MODIFY"
},{
  "api": "apps",
  "kind": "Deployment",
  "namespace": "gitlab",
  "name": "gitlab-sidekiq-database-throttled-v2",
  "change": "MODIFY"
},{
  "api": "apps",
  "kind": "Deployment",
  "namespace": "gitlab",
  "name": "gitlab-sidekiq-elasticsearch-v2",
  "change": "MODIFY"
},{
  "api": "apps",
  "kind": "Deployment",
  "namespace": "gitlab",
  "name": "gitlab-sidekiq-gitaly-throttled-v2",
  "change": "MODIFY"
},{
  "api": "apps",
  "kind": "Deployment",
  "namespace": "gitlab",
  "name": "gitlab-sidekiq-low-urgency-cpu-bound-v2",
  "change": "MODIFY"
},{
  "api": "apps",
  "kind": "Deployment",
  "namespace": "gitlab",
  "name": "gitlab-sidekiq-memory-bound-v2",
  "change": "MODIFY"
},{
  "api": "apps",
  "kind": "Deployment",
  "namespace": "gitlab",
  "name": "gitlab-sidekiq-urgent-cpu-bound-v2",
  "change": "MODIFY"
},{
  "api": "apps",
  "kind": "Deployment",
  "namespace": "gitlab",
  "name": "gitlab-sidekiq-urgent-other-v2",
  "change": "MODIFY"
},{
  "api": "apps",
  "kind": "Deployment",
  "namespace": "gitlab",
  "name": "gitlab-sidekiq-urgent-authorized-projects-v2",
  "change": "MODIFY"
},
{
  "api": "apps",
  "kind": "Deployment",
  "namespace": "gitlab",
  "name": "gitlab-sidekiq-quarantine-v2",
  "change": "MODIFY"
}]
